AWSTATS DATA FILE 7.7 (build 20180105)
# If you remove this file, all statistics for date 201908 will be lost/reset.
# Last config file used to build this data file was /home/apilivemenu/tmp/awstats/awstats.api1.livemenu.info.conf.

# Position (offset in bytes) in this file for beginning of each section for
# direct I/O access. If you made changes somewhere in this file, you should
# also remove completely the MAP section (AWStats will rewrite it at next
# update).
BEGIN_MAP 28
POS_GENERAL 2018                
POS_TIME 2693                
POS_VISITOR 6570                
POS_DAY 6834                
POS_DOMAIN 3220                
POS_LOGIN 3460                
POS_ROBOT 3615                
POS_WORMS 3791                
POS_EMAILSENDER 3922                
POS_EMAILRECEIVER 4065                
POS_SESSION 6989                
POS_SIDER 7141                
POS_FILETYPES 4200                
POS_DOWNLOADS 4303                
POS_OS 4351                
POS_BROWSER 4468                
POS_SCREENSIZE 4556                
POS_UNKNOWNREFERER 4630                
POS_UNKNOWNREFERERBROWSER 4870                
POS_ORIGIN 4952                
POS_SEREFERRALS 5084                
POS_PAGEREFS 5228                
POS_SEARCHWORDS 5523                
POS_KEYWORDS 5675                
POS_MISC 2357                
POS_ERRORS 5734                
POS_CLUSTER 3316                
POS_SIDER_404 5857                
END_MAP

# LastLine    = Date of last record processed - Last record line number in last log - Last record offset in last log - Last record signature value
# FirstTime   = Date of first visit for history file
# LastTime    = Date of last visit for history file
# LastUpdate  = Date of last update - Nb of parsed records - Nb of parsed old records - Nb of parsed new records - Nb of parsed corrupted - Nb of parsed dropped
# TotalVisits = Number of visits
# TotalUnique = Number of unique visitors
# MonthHostsKnown   = Number of hosts known
# MonthHostsUnKnown = Number of hosts unknown
BEGIN_GENERAL 8
LastLine 20190813115101 7 2326 39278839308194
FirstTime 20190801002036
LastTime 20190809161416
LastUpdate 20190813151708 7 0 7 0 0
TotalVisits 6                   
TotalUnique 5                   
MonthHostsKnown 0                   
MonthHostsUnknown 5                   
END_GENERAL

# Misc ID - Pages - Hits - Bandwidth
BEGIN_MISC 10
PDFSupport 0 0 0
QuickTimeSupport 0 0 0
JavaEnabled 0 0 0
AddToFavourites 0 1 0
TotalMisc 0 0 0
DirectorSupport 0 0 0
WindowsMediaPlayerSupport 0 0 0
RealPlayerSupport 0 0 0
JavascriptDisabled 0 0 0
FlashSupport 0 0 0
END_MISC

# Hour - Pages - Hits - Bandwidth - Not viewed Pages - Not viewed Hits - Not viewed Bandwidth
BEGIN_TIME 24
0 7 7 290675 0 0 0
1 6 6 249150 0 0 0
2 18 18 499586 0 0 0
3 26 26 1080269 0 0 0
4 1 1 41715 19 19 21168
5 0 0 0 0 0 0
6 0 0 0 0 0 0
7 0 0 0 0 0 0
8 0 0 0 0 0 0
9 1 1 0 0 0 0
10 0 0 0 0 0 0
11 1 1 2360 7 7 140033
12 0 0 0 0 0 0
13 0 0 0 0 0 0
14 0 0 0 0 0 0
15 1 1 41715 1 1 70
16 2 2 807 0 1 0
17 0 0 0 0 0 0
18 0 0 0 0 0 0
19 0 0 0 0 0 0
20 0 0 0 0 0 0
21 0 0 0 0 0 0
22 0 0 0 0 0 0
23 0 0 0 0 0 0
END_TIME

# Domain - Pages - Hits - Bandwidth
# The 25 first Pages must be first (order not required for others)
BEGIN_DOMAIN 2
ro 61 61 2203917
us 2 2 2360
END_DOMAIN

# Cluster ID - Pages - Hits - Bandwidth
BEGIN_CLUSTER 0
END_CLUSTER

# Login - Pages - Hits - Bandwidth - Last visit
# The 10 first Pages must be first (order not required for others)
BEGIN_LOGIN 0
END_LOGIN

# Robot ID - Hits - Bandwidth - Last visit - Hits on robots.txt
# The 25 first Hits must be first (order not required for others)
BEGIN_ROBOT 1
facebookexternalhit/ 1 744 20190806043615 0
END_ROBOT

# Worm ID - Hits - Bandwidth - Last visit
# The 5 first Hits must be first (order not required for others)
BEGIN_WORMS 0
END_WORMS

# EMail - Hits - Bandwidth - Last visit
# The 20 first Hits must be first (order not required for others)
BEGIN_EMAILSENDER 0
END_EMAILSENDER

# EMail - Hits - Bandwidth - Last visit
# The 20 first hits must be first (order not required for others)
BEGIN_EMAILRECEIVER 0
END_EMAILRECEIVER

# Files type - Hits - Bandwidth - Bandwidth without compression - Bandwidth after compression
BEGIN_FILETYPES 2
Unknown 60 2203173 0 0
html 3 3104 0 0
END_FILETYPES

# Downloads - Hits - Bandwidth
BEGIN_DOWNLOADS 0
END_DOWNLOADS

# OS ID - Hits
BEGIN_OS ID - Hits - Pages 4
linuxandroid 59 59
Unknown 2 2
macosx 1 1
win10 1 1
END_OS

# Browser ID - Hits - Pages
BEGIN_BROWSER 2
mozilla 2 2
chrome75.0.3770.142 61 61
END_BROWSER

# Screen size - Hits
BEGIN_SCREENSIZE 0
END_SCREENSIZE

# Unknown referer OS - Last visit date
BEGIN_UNKNOWNREFERER 2
Mozilla/4.0_(compatible;_Netcraft_Web_Server_Survey) 20190802093209
Mozilla/5.0_(compatible;_NetcraftSurveyAgent/1.0;__info@netcraft.com) 20190803113125
END_UNKNOWNREFERER

# Unknown referer Browser - Last visit date
BEGIN_UNKNOWNREFERERBROWSER 0
END_UNKNOWNREFERERBROWSER

# Origin - Pages - Hits 
BEGIN_ORIGIN 6
From0 2 2
From1 0 0
From2 0 0
From3 61 61
From4 0 0
From5 0 0
END_ORIGIN

# Search engine referers ID - Pages - Hits
BEGIN_SEREFERRALS 0
END_SEREFERRALS

# External page referers - Pages - Hits
# The 25 first Pages must be first (order not required for others)
BEGIN_PAGEREFS 3
http://localhost:63342/Livemenu/Noua%20varianta/profesionist/index.html 59 59
https://www.netcraft.com/survey/ 1 1
https://c09-153.tlh.ro:2087 1 1
END_PAGEREFS

# Search keyphrases - Number of search
# The 10 first number of search must be first (order not required for others)
BEGIN_SEARCHWORDS 0
END_SEARCHWORDS

# Search keywords - Number of search
# The 25 first number of search must be first (order not required for others)
BEGIN_KEYWORDS 0
END_KEYWORDS

# Errors - Hits - Bandwidth
BEGIN_ERRORS 4
301 6 1800
405 3 139753
404 12 18624
403 5 350
END_ERRORS

# URL with 404 errors - Hits - Last URL referrer
BEGIN_SIDER_404 4
/Retrieve_3mails/retrieve/spool 4 http://api1.livemenu.info/Retrieve_3mails/retrieve/spool/
/Retrieve_3mails/retrieve/index.php 6 http://api1.livemenu.info/Retrieve_3mails/retrieve/index.php
/Retrieve_3mails/retrieve/QHCitVkpMUhjg.php 1 http://api1.livemenu.info/Retrieve_3mails/retrieve/QHCitVkpMUhjg.php
/Retrieve_3mails/retrieve/cRmlDYnGPEZ 1 http://api1.livemenu.info/Retrieve_3mails/retrieve/spool/
END_SIDER_404

# Host - Pages - Hits - Bandwidth - Last visit date - [Start date of last visit] - [Last page of last visit]
# [Start date of last visit] and [Last page of last visit] are saved only if session is not finished
# The 25 first Hits must be first (order not required for others)
BEGIN_VISITOR 5
95.77.116.54 59 59 2161458 20190808164843
188.240.227.237 1 1 41715 20190801154317
82.137.8.169 1 1 744 20190809161416
167.71.84.183 1 1 2360 20190803113125
167.99.123.34 1 1 0 20190802093209
END_VISITOR

# Date - Pages - Hits - Bandwidth - Visits
BEGIN_DAY 5
20190801 59 59 2203110 2
20190802 1 1 0 1
20190803 1 1 2360 1
20190808 1 1 63 1
20190809 1 1 744 1
END_DAY

# Session range - Number of visits
BEGIN_SESSION 2
0s-30s 5
1h+ 1
END_SESSION

# URL - Pages - Bandwidth - Entry - Exit
# The 25 first Pages must be first (order not required for others)
BEGIN_SIDER 3
/api/professionist 55 2201929 3 3
/api/user/professionist/add 5 1244 0 0
/ 3 3104 3 3
END_SIDER
